Modelling of Coronavirus Data from Italy using Count Time Series Models
…
finalpdf

## # A tibble: 34 x 11
##    Date       HospitalizedPat IntensiveCarePa TotalHospitaliz HomeConfinement
##    <date>                <dbl>            <dbl>            <dbl>           <dbl>
##  1 2020-02-24              101               26              127              94
##  2 2020-02-25              114               35              150             162
##  3 2020-02-26              128               36              164             221
##  4 2020-02-27              248               56              304             284
##  5 2020-02-28              345               64              409             412
##  6 2020-02-29              401              105              506             543
##  7 2020-03-01              639              140              779             798
##  8 2020-03-02              742              166              908             927
##  9 2020-03-03             1034              229             1263            1000
## 10 2020-03-04             1346              295             1641            1065
## #  with 24 more rows, and 6 more variables: CurrentPositiveCases <dbl>,
## #   NewPositiveCases <dbl>, Recovered <dbl>, Deaths <dbl>,
## #   TotalPositiveCases <dbl>, TestsPerformed <dbl>
…
